<svg version="1.1" id="Layer_1" xmlns="http://www.w3.org/2000/svg" xmlns:xlink="http://www.w3.org/1999/xlink" x="0px" y="0px"
	 width="396.253px" height="63.361px" viewBox="0 0 396.253 63.361" enable-background="new 0 0 396.253 63.361"
	 xml:space="preserve">
<polygon fill="#2075BC" points="50.713,25.284 50.633,24.194 50.508,23.112 50.325,22.035 50.085,20.967 49.803,19.911 
	49.467,18.863 49.074,17.828 48.631,16.807 48.143,15.813 47.591,14.833 46.996,13.878 46.348,12.941 45.643,12.037 44.89,11.159 
	44.087,10.319 44.093,10.315 43.248,9.518 42.371,8.764 41.467,8.059 40.53,7.412 39.575,6.817 38.595,6.265 37.6,5.776 
	36.58,5.334 35.544,4.941 34.497,4.605 33.44,4.322 32.372,4.082 31.294,3.9 30.212,3.775 29.123,3.694 28.036,3.665 26.947,3.694 
	25.856,3.775 24.774,3.9 23.699,4.082 22.628,4.322 21.574,4.605 20.525,4.941 19.491,5.334 18.471,5.776 17.476,6.265 
	16.496,6.817 15.54,7.412 14.604,8.059 13.7,8.764 12.823,9.518 11.981,10.319 11.181,11.159 10.428,12.037 9.723,12.941 
	9.075,13.878 8.479,14.833 7.928,15.813 7.434,16.812 6.997,17.828 6.604,18.863 6.268,19.911 5.984,20.967 5.746,22.035 
	5.562,23.112 5.438,24.194 5.355,25.284 5.328,26.372 5.355,27.46 5.438,28.55 5.562,29.633 5.746,30.709 5.984,31.778 
	6.268,32.833 6.604,33.881 6.997,34.917 7.434,35.932 7.928,36.932 8.479,37.911 9.075,38.866 9.723,39.803 10.428,40.707 
	11.181,41.584 11.79,42.223 11.824,42.273 11.873,42.336 11.927,42.399 11.983,42.459 12.042,42.516 12.104,42.57 12.168,42.62 
	12.234,42.666 12.303,42.708 12.372,42.747 12.442,42.782 12.514,42.814 12.586,42.842 12.662,42.865 12.735,42.885 12.812,42.903 
	12.888,42.916 12.964,42.926 13.042,42.93 13.119,42.932 13.196,42.93 13.272,42.926 13.35,42.917 13.426,42.905 13.501,42.887 
	13.577,42.868 13.65,42.844 13.724,42.817 13.795,42.786 13.867,42.75 13.936,42.713 14.003,42.67 14.069,42.625 14.135,42.575 
	14.197,42.523 14.256,42.465 28.176,28.615 33.873,34.312 33.933,34.369 33.995,34.422 34.059,34.471 34.125,34.518 34.192,34.561 
	34.263,34.6 34.333,34.633 34.406,34.666 34.479,34.694 34.554,34.717 34.627,34.738 34.705,34.754 34.781,34.766 34.857,34.777 
	34.935,34.782 35.012,34.784 35.089,34.782 35.166,34.777 35.244,34.766 35.319,34.754 35.396,34.738 35.471,34.717 35.544,34.694 
	35.619,34.666 35.69,34.633 35.762,34.6 35.831,34.561 35.898,34.518 35.966,34.471 36.03,34.422 36.092,34.369 36.151,34.312 
	36.208,34.252 36.263,34.19 36.312,34.125 36.358,34.059 36.4,33.991 36.438,33.922 36.475,33.85 36.505,33.779 36.534,33.705 
	36.558,33.631 36.578,33.555 36.595,33.48 36.607,33.404 36.617,33.327 36.622,33.25 36.624,33.172 36.622,33.094 36.617,33.018 
	36.607,32.941 36.595,32.864 36.578,32.789 36.558,32.713 36.534,32.639 36.505,32.566 36.475,32.494 36.438,32.423 36.4,32.353 
	36.358,32.285 36.312,32.219 36.263,32.155 36.208,32.093 36.151,32.032 29.321,25.201 29.314,25.201 29.261,25.151 29.199,25.097 
	29.135,25.047 29.069,25.001 29.001,24.959 28.933,24.92 28.861,24.884 28.79,24.853 28.717,24.825 28.643,24.801 28.567,24.781 
	28.493,24.764 28.416,24.751 28.339,24.741 28.263,24.736 28.185,24.734 28.108,24.736 28.032,24.741 27.955,24.75 27.878,24.762 
	27.803,24.779 27.728,24.799 27.654,24.822 27.581,24.85 27.508,24.881 27.437,24.916 27.369,24.954 27.301,24.996 27.234,25.042 
	27.169,25.092 27.107,25.145 27.047,25.201 13.189,38.991 12.913,38.668 12.313,37.889 11.754,37.094 11.241,36.273 10.777,35.435 
	10.354,34.579 9.972,33.705 9.641,32.822 9.35,31.925 9.102,31.012 8.907,30.094 8.75,29.169 8.635,28.238 8.571,27.309 
	8.552,26.372 8.571,25.436 8.635,24.506 8.75,23.575 8.907,22.65 9.102,21.732 9.35,20.82 9.641,19.923 9.972,19.039 10.354,18.166 
	10.777,17.309 11.241,16.471 11.754,15.65 12.313,14.856 12.913,14.076 13.559,13.324 14.252,12.59 14.986,11.896 15.74,11.249 
	16.518,10.651 17.312,10.092 18.135,9.577 18.972,9.115 19.833,8.688 20.702,8.308 21.584,7.978 22.482,7.686 23.395,7.439 
	24.312,7.244 25.238,7.088 26.168,6.972 27.099,6.908 28.036,6.889 28.972,6.908 29.901,6.972 30.832,7.088 31.756,7.244 
	32.675,7.439 33.587,7.686 34.484,7.978 35.369,8.308 36.238,8.688 37.099,9.115 37.936,9.577 38.758,10.092 39.552,10.651 
	40.331,11.249 41.083,11.896 41.812,12.594 41.816,12.59 42.512,13.324 43.159,14.076 43.755,14.856 44.314,15.65 44.83,16.471 
	45.292,17.309 45.72,18.17 46.099,19.039 46.43,19.923 46.721,20.82 46.969,21.732 47.164,22.65 47.318,23.575 47.435,24.506 
	47.499,25.436 47.518,26.372 47.499,27.309 47.435,28.238 47.318,29.169 47.164,30.094 46.969,31.012 46.721,31.925 46.43,32.822 
	46.099,33.705 45.72,34.574 45.292,35.435 44.83,36.273 44.314,37.094 43.755,37.889 43.159,38.668 42.512,39.42 41.899,40.067 
	41.85,40.114 27.932,53.965 22.233,48.268 22.173,48.211 22.111,48.157 22.047,48.107 21.98,48.061 21.914,48.018 21.844,47.98 
	21.772,47.945 21.701,47.913 21.627,47.885 21.553,47.862 21.478,47.842 21.402,47.825 21.326,47.812 21.249,47.801 21.171,47.797 
	21.095,47.795 21.018,47.797 20.939,47.801 20.863,47.812 20.787,47.825 20.71,47.842 20.636,47.862 20.561,47.885 20.488,47.913 
	20.416,47.945 20.345,47.98 20.275,48.018 20.208,48.061 20.142,48.107 20.077,48.157 20.015,48.211 19.955,48.268 19.896,48.328 
	19.844,48.389 19.793,48.454 19.748,48.52 19.706,48.588 19.667,48.658 19.631,48.729 19.601,48.801 19.573,48.874 19.548,48.948 
	19.529,49.024 19.512,49.098 19.499,49.176 19.49,49.252 19.483,49.33 19.482,49.407 19.483,49.485 19.49,49.562 19.499,49.639 
	19.512,49.715 19.529,49.791 19.548,49.866 19.573,49.941 19.601,50.014 19.631,50.086 19.667,50.157 19.706,50.225 19.748,50.293 
	19.793,50.36 19.844,50.424 19.896,50.487 19.955,50.547 26.786,57.377 26.792,57.377 26.846,57.428 26.908,57.483 26.972,57.532 
	27.038,57.579 27.104,57.621 27.173,57.66 27.245,57.695 27.316,57.725 27.39,57.754 27.463,57.779 27.539,57.799 27.615,57.816 
	27.689,57.829 27.767,57.838 27.844,57.844 27.921,57.846 27.998,57.844 28.075,57.838 28.151,57.83 28.228,57.818 28.304,57.801 
	28.378,57.781 28.453,57.756 28.525,57.73 28.599,57.698 28.668,57.664 28.739,57.625 28.807,57.584 28.872,57.538 28.937,57.488 
	28.999,57.435 29.059,57.377 44.029,42.481 44.087,42.424 44.89,41.584 45.643,40.707 46.348,39.803 46.996,38.866 47.591,37.911 
	48.143,36.932 48.631,35.937 49.074,34.917 49.467,33.881 49.803,32.833 50.085,31.778 50.325,30.709 50.508,29.633 50.633,28.55 
	50.713,27.46 50.743,26.372 "/>
<g>
	<path fill="#2075BC" d="M84.281,22.322c-0.058-1.328-0.34-2.484-0.845-3.467c-0.506-0.982-1.192-1.805-2.059-2.47
		c-0.867-0.664-1.9-1.163-3.099-1.495c-1.199-0.332-2.506-0.499-3.922-0.499c-0.867,0-1.798,0.102-2.795,0.304
		s-1.922,0.557-2.774,1.062c-0.853,0.506-1.553,1.185-2.102,2.037c-0.549,0.853-0.824,1.914-0.824,3.185
		c0,1.243,0.304,2.253,0.91,3.034c0.607,0.78,1.401,1.408,2.384,1.885c0.982,0.477,2.108,0.86,3.38,1.148
		c1.271,0.289,2.557,0.563,3.857,0.823c1.328,0.26,2.622,0.571,3.878,0.932c1.257,0.362,2.384,0.853,3.38,1.474
		c0.997,0.622,1.798,1.43,2.405,2.427c0.606,0.997,0.91,2.247,0.91,3.749c0,1.619-0.347,2.976-1.04,4.074
		c-0.694,1.099-1.568,1.994-2.622,2.687c-1.055,0.693-2.225,1.192-3.51,1.495c-1.286,0.304-2.521,0.455-3.706,0.455
		c-1.82,0-3.525-0.194-5.114-0.585c-1.589-0.39-2.976-1.025-4.16-1.906c-1.185-0.882-2.117-2.016-2.795-3.402
		c-0.679-1.387-1.004-3.077-0.975-5.07h1.907c-0.087,1.705,0.158,3.143,0.736,4.312s1.379,2.131,2.405,2.881
		c1.025,0.753,2.232,1.293,3.619,1.625c1.387,0.334,2.845,0.5,4.377,0.5c0.924,0,1.914-0.115,2.969-0.348
		c1.054-0.23,2.022-0.621,2.904-1.17c0.881-0.549,1.618-1.271,2.21-2.167c0.592-0.895,0.888-2.022,0.888-3.38
		c0-1.3-0.303-2.361-0.91-3.186c-0.607-0.822-1.409-1.487-2.405-1.993c-0.997-0.505-2.124-0.91-3.38-1.213
		c-1.256-0.303-2.55-0.585-3.879-0.845c-1.3-0.26-2.586-0.563-3.857-0.91s-2.398-0.816-3.38-1.409
		c-0.983-0.592-1.777-1.357-2.384-2.297c-0.606-0.938-0.91-2.145-0.91-3.619c0-1.474,0.31-2.737,0.932-3.792
		c0.621-1.054,1.43-1.907,2.427-2.557s2.116-1.127,3.358-1.43c1.242-0.304,2.47-0.455,3.684-0.455c1.618,0,3.127,0.181,4.529,0.542
		c1.401,0.362,2.628,0.925,3.684,1.69c1.054,0.766,1.899,1.755,2.535,2.968c0.635,1.213,0.997,2.673,1.083,4.377L84.281,22.322
		L84.281,22.322z"/>
	<path fill="#2075BC" d="M99.101,23.579h-4.854v15.559c0,0.896,0.101,1.604,0.304,2.123c0.202,0.521,0.512,0.918,0.932,1.192
		c0.418,0.275,0.924,0.44,1.517,0.498c0.592,0.06,1.278,0.073,2.059,0.043v1.431c-0.838,0.058-1.654,0.049-2.449-0.021
		c-0.795-0.072-1.495-0.289-2.102-0.65c-0.607-0.361-1.091-0.902-1.452-1.625c-0.362-0.722-0.514-1.719-0.455-2.99V23.58h-4.117
		v-1.43h4.117v-6.934h1.646v6.934h4.854V23.579z"/>
	<path fill="#2075BC" d="M103.781,27.09h0.13c0.202-0.722,0.57-1.401,1.105-2.037c0.535-0.635,1.185-1.185,1.95-1.647
		c0.765-0.461,1.618-0.816,2.557-1.062c0.938-0.245,1.914-0.354,2.925-0.325v1.646c-0.867-0.115-1.857-0.028-2.969,0.26
		c-1.112,0.29-2.174,0.925-3.185,1.907c-0.405,0.433-0.759,0.853-1.062,1.256c-0.303,0.405-0.557,0.853-0.758,1.344
		c-0.203,0.492-0.362,1.04-0.477,1.646c-0.116,0.607-0.188,1.33-0.217,2.167v12.179h-1.647V22.149h1.647L103.781,27.09
		L103.781,27.09z"/>
	<path fill="#2075BC" d="M128.959,40.004h-0.086c-0.26,0.664-0.636,1.293-1.127,1.885c-0.492,0.592-1.091,1.119-1.798,1.582
		c-0.708,0.463-1.51,0.824-2.405,1.082c-0.896,0.261-1.878,0.391-2.947,0.391c-2.37,0-4.204-0.514-5.504-1.539
		c-1.3-1.025-1.95-2.607-1.95-4.745c0-1.3,0.26-2.362,0.78-3.187c0.52-0.822,1.177-1.473,1.972-1.949
		c0.794-0.477,1.675-0.816,2.644-1.018c0.968-0.203,1.899-0.348,2.795-0.435l2.557-0.217c1.185-0.086,2.116-0.223,2.795-0.412
		c0.678-0.188,1.191-0.447,1.539-0.78c0.347-0.332,0.563-0.759,0.65-1.279c0.086-0.52,0.13-1.17,0.13-1.95
		c0-0.606-0.116-1.17-0.347-1.69s-0.592-0.982-1.083-1.387c-0.492-0.404-1.126-0.722-1.907-0.954
		c-0.78-0.231-1.733-0.347-2.86-0.347c-1.993,0-3.604,0.492-4.832,1.474s-1.9,2.47-2.015,4.464h-1.647
		c0.115-2.456,0.903-4.297,2.362-5.526c1.458-1.228,3.532-1.842,6.219-1.842s4.644,0.528,5.872,1.582
		c1.228,1.055,1.842,2.434,1.842,4.139v12.958c0,0.317,0.007,0.636,0.021,0.953c0.014,0.318,0.065,0.607,0.152,0.867
		s0.231,0.471,0.434,0.629c0.202,0.158,0.491,0.237,0.867,0.237c0.288,0,0.694-0.043,1.213-0.13v1.387
		c-0.434,0.116-0.882,0.174-1.344,0.174c-0.665,0-1.191-0.088-1.582-0.261s-0.687-0.403-0.889-0.692
		c-0.202-0.289-0.34-0.629-0.412-1.019c-0.072-0.39-0.108-0.815-0.108-1.278L128.959,40.004L128.959,40.004z M128.959,31.77
		c-0.405,0.492-1.018,0.822-1.842,0.996c-0.823,0.174-1.741,0.304-2.752,0.391l-2.773,0.26c-0.809,0.088-1.618,0.211-2.427,0.369
		c-0.809,0.159-1.539,0.428-2.188,0.803c-0.65,0.375-1.178,0.887-1.582,1.539c-0.405,0.649-0.606,1.494-0.606,2.534
		c0,1.646,0.52,2.868,1.56,3.662c1.04,0.795,2.47,1.192,4.291,1.192c1.877,0,3.365-0.34,4.463-1.02
		c1.098-0.678,1.936-1.458,2.514-2.34c0.578-0.881,0.946-1.732,1.105-2.557c0.159-0.823,0.238-1.379,0.238-1.668L128.959,31.77
		L128.959,31.77z M126.533,12.789h2.21l-5.807,6.067h-1.604L126.533,12.789z"/>
	<path fill="#2075BC" d="M135.851,22.149h1.646v4.767h0.087c0.289-0.837,0.7-1.582,1.235-2.23c0.534-0.65,1.155-1.206,1.863-1.668
		c0.708-0.462,1.48-0.809,2.318-1.041c0.838-0.23,1.69-0.347,2.558-0.347c1.3,0,2.404,0.159,3.314,0.477
		c0.91,0.318,1.654,0.737,2.232,1.257c0.577,0.52,1.032,1.105,1.365,1.755c0.331,0.65,0.57,1.308,0.715,1.972
		c0.145,0.665,0.23,1.308,0.26,1.929c0.028,0.622,0.044,1.163,0.044,1.625v13.78h-1.647V30.341c0-0.548-0.043-1.242-0.13-2.08
		s-0.34-1.64-0.759-2.405c-0.419-0.765-1.055-1.423-1.906-1.972c-0.853-0.549-2.03-0.824-3.532-0.824
		c-1.271,0-2.398,0.232-3.38,0.693c-0.982,0.463-1.82,1.105-2.514,1.929c-0.694,0.824-1.221,1.806-1.582,2.947
		c-0.361,1.142-0.542,2.391-0.542,3.749v12.048h-1.646L135.851,22.149L135.851,22.149z"/>
	<path fill="#2075BC" d="M158.43,13.482h1.646V33.98l13.738-11.831h2.383l-9.75,8.321l10.444,13.955h-2.253l-9.491-12.697
		l-5.07,4.291v8.406h-1.646L158.43,13.482L158.43,13.482z"/>
	<path fill="#2075BC" d="M175.721,22.149h1.95l8.277,20.324l7.627-20.324h1.863l-9.534,24.658c-0.462,1.099-0.888,2.045-1.278,2.84
		c-0.39,0.794-0.831,1.379-1.321,1.755c-0.578,0.462-1.265,0.744-2.059,0.845c-0.795,0.102-1.842,0.152-3.143,0.152v-1.43
		c1.185,0,2.109-0.095,2.774-0.282c0.664-0.188,1.285-0.571,1.863-1.148c0.317-0.317,0.649-0.903,0.996-1.755
		c0.347-0.854,0.78-2.015,1.301-3.488L175.721,22.149z"/>
	<path fill="#2075BC" d="M197.952,13.482h12.914c1.356,0,2.629,0.137,3.813,0.412c1.185,0.275,2.225,0.723,3.119,1.343
		c0.896,0.622,1.598,1.438,2.104,2.449c0.505,1.012,0.758,2.269,0.758,3.77c0,2.081-0.585,3.835-1.755,5.266
		c-1.171,1.431-2.796,2.318-4.875,2.665v0.087c1.415,0.173,2.534,0.549,3.358,1.126c0.822,0.579,1.437,1.286,1.842,2.124
		c0.404,0.839,0.664,1.764,0.779,2.774c0.115,1.013,0.174,2.022,0.174,3.033c0,0.606,0,1.199,0,1.776
		c0,0.58,0.027,1.121,0.086,1.625c0.059,0.507,0.151,0.976,0.281,1.408c0.131,0.435,0.311,0.795,0.543,1.084h-2.123
		c-0.406-0.723-0.63-1.567-0.673-2.535c-0.044-0.969-0.065-1.973-0.065-3.012c0-1.041-0.043-2.072-0.129-3.099
		c-0.088-1.024-0.361-1.942-0.823-2.752c-0.464-0.809-1.191-1.458-2.188-1.95c-0.996-0.491-2.404-0.737-4.226-0.737h-11.009v14.084
		h-1.905V13.482z M210.866,28.693c1.127,0,2.174-0.137,3.142-0.412c0.969-0.274,1.799-0.7,2.492-1.278
		c0.693-0.578,1.242-1.314,1.646-2.21c0.404-0.895,0.606-1.964,0.606-3.207c0-1.155-0.217-2.146-0.649-2.969
		c-0.434-0.823-1.013-1.495-1.733-2.015c-0.724-0.521-1.562-0.896-2.515-1.127c-0.953-0.231-1.949-0.347-2.989-0.347h-11.009v13.564
		L210.866,28.693L210.866,28.693z"/>
	<path fill="#2075BC" d="M225.556,33.504v0.26c0,1.3,0.174,2.541,0.521,3.727s0.861,2.225,1.543,3.121s1.535,1.604,2.562,2.124
		c1.028,0.521,2.224,0.78,3.586,0.78c2.229,0,3.998-0.586,5.301-1.756c1.304-1.17,2.201-2.795,2.693-4.875h1.647
		c-0.492,2.601-1.554,4.595-3.187,5.98c-1.633,1.387-3.791,2.08-6.479,2.08c-1.646,0-3.085-0.296-4.312-0.889
		c-1.229-0.592-2.252-1.4-3.076-2.426c-0.823-1.025-1.438-2.238-1.842-3.641c-0.404-1.4-0.606-2.91-0.606-4.529
		c0-1.56,0.209-3.055,0.629-4.484c0.418-1.43,1.047-2.688,1.885-3.771c0.839-1.083,1.886-1.95,3.142-2.601
		c1.258-0.65,2.738-0.975,4.442-0.975c1.56,0,2.939,0.29,4.14,0.867c1.197,0.579,2.203,1.365,3.012,2.362s1.423,2.152,1.842,3.467
		s0.629,2.724,0.629,4.225c0,0.146-0.008,0.312-0.021,0.5c-0.016,0.188-0.021,0.34-0.021,0.455h-18.029V33.504z M241.937,32.073
		c-0.059-1.213-0.26-2.362-0.607-3.445s-0.861-2.037-1.542-2.86c-0.683-0.823-1.507-1.48-2.478-1.972
		c-0.972-0.491-2.078-0.737-3.324-0.737c-1.332,0-2.506,0.253-3.521,0.758c-1.015,0.506-1.868,1.17-2.563,1.994
		c-0.694,0.823-1.23,1.784-1.606,2.882c-0.377,1.099-0.608,2.225-0.694,3.38H241.937L241.937,32.073z"/>
	<path fill="#2075BC" d="M262.22,40.004h-0.088c-0.26,0.664-0.636,1.293-1.127,1.885c-0.49,0.592-1.091,1.119-1.799,1.582
		s-1.51,0.824-2.404,1.082c-0.896,0.261-1.879,0.391-2.947,0.391c-2.369,0-4.203-0.514-5.504-1.539
		c-1.299-1.025-1.949-2.607-1.949-4.745c0-1.3,0.26-2.362,0.779-3.187c0.521-0.822,1.178-1.473,1.973-1.949
		c0.794-0.477,1.675-0.816,2.644-1.018c0.968-0.203,1.899-0.348,2.796-0.435l2.557-0.217c1.185-0.086,2.115-0.223,2.796-0.412
		c0.679-0.188,1.19-0.447,1.538-0.78c0.347-0.332,0.562-0.759,0.65-1.279c0.086-0.52,0.129-1.17,0.129-1.95
		c0-0.606-0.115-1.17-0.347-1.69s-0.593-0.982-1.083-1.387c-0.492-0.404-1.127-0.722-1.906-0.954
		c-0.781-0.231-1.734-0.347-2.861-0.347c-1.992,0-3.604,0.492-4.832,1.474s-1.899,2.47-2.014,4.464h-1.647
		c0.114-2.456,0.903-4.297,2.362-5.526c1.457-1.228,3.531-1.842,6.219-1.842s4.644,0.528,5.871,1.582
		c1.229,1.055,1.843,2.434,1.843,4.139v12.958c0,0.317,0.007,0.636,0.021,0.953c0.016,0.318,0.065,0.607,0.152,0.867
		c0.086,0.26,0.23,0.471,0.434,0.629c0.201,0.158,0.49,0.237,0.867,0.237c0.287,0,0.692-0.043,1.213-0.13v1.387
		c-0.434,0.116-0.882,0.174-1.344,0.174c-0.665,0-1.191-0.088-1.582-0.261c-0.39-0.173-0.688-0.403-0.889-0.692
		c-0.202-0.289-0.34-0.629-0.411-1.019c-0.073-0.39-0.108-0.815-0.108-1.278V40.004L262.22,40.004z M262.22,31.77
		c-0.406,0.492-1.02,0.822-1.843,0.996s-1.741,0.304-2.752,0.391l-2.772,0.26c-0.811,0.088-1.619,0.211-2.428,0.369
		c-0.81,0.159-1.539,0.428-2.189,0.803c-0.648,0.375-1.176,0.887-1.58,1.539c-0.405,0.649-0.607,1.494-0.607,2.534
		c0,1.646,0.521,2.868,1.561,3.662c1.041,0.795,2.471,1.192,4.291,1.192c1.877,0,3.365-0.34,4.464-1.02
		c1.098-0.678,1.936-1.458,2.514-2.34c0.577-0.881,0.946-1.732,1.104-2.557c0.158-0.823,0.238-1.379,0.238-1.668V31.77L262.22,31.77
		z"/>
	<path fill="#2075BC" d="M271.146,13.482v30.942H269.5V13.482H271.146z"/>
	<path fill="#2075BC" d="M276.781,17.946v-4.463h1.646v4.463H276.781z M276.781,44.424V22.15h1.646v22.274H276.781z"/>
	<path fill="#2075BC" d="M291.861,23.579h-4.854v15.559c0,0.896,0.101,1.604,0.304,2.123c0.201,0.521,0.514,0.918,0.933,1.192
		c0.418,0.275,0.924,0.44,1.517,0.498c0.592,0.06,1.278,0.073,2.059,0.043v1.431c-0.838,0.058-1.653,0.049-2.447-0.021
		c-0.795-0.072-1.495-0.289-2.104-0.65c-0.605-0.361-1.09-0.902-1.451-1.625c-0.36-0.722-0.514-1.719-0.454-2.99V23.58h-4.117v-1.43
		h4.117v-6.934h1.646v6.934h4.854L291.861,23.579L291.861,23.579z"/>
	<path fill="#2075BC" d="M294.98,13.482h1.647V33.98l13.738-11.831h2.383l-9.75,8.321l10.443,13.955h-2.252l-9.492-12.697
		l-5.07,4.291v8.406h-1.645V13.482H294.98z"/>
	<path fill="#2075BC" d="M312.273,22.149h1.949l8.277,20.324l7.627-20.324h1.863l-9.535,24.658c-0.461,1.099-0.887,2.045-1.277,2.84
		c-0.391,0.794-0.83,1.379-1.32,1.755c-0.578,0.462-1.266,0.744-2.061,0.845c-0.795,0.102-1.842,0.152-3.143,0.152v-1.43
		c1.186,0,2.109-0.095,2.775-0.282c0.664-0.188,1.283-0.571,1.861-1.148c0.318-0.317,0.65-0.903,0.996-1.755
		c0.348-0.854,0.781-2.015,1.301-3.488L312.273,22.149z"/>
	<path fill="#2075BC" d="M334.592,39.961h2.211v4.463h-2.211V39.961z"/>
	<path fill="#2075BC" d="M343.303,28.953c0-2.253,0.332-4.37,0.996-6.349c0.664-1.979,1.625-3.698,2.883-5.157
		c1.256-1.458,2.803-2.607,4.637-3.445c1.834-0.838,3.908-1.257,6.219-1.257c1.82,0,3.396,0.238,4.725,0.715
		s2.447,1.069,3.357,1.777s1.654,1.481,2.232,2.319c0.578,0.838,1.018,1.625,1.32,2.362c0.305,0.736,0.514,1.373,0.629,1.907
		c0.115,0.535,0.174,0.831,0.174,0.888h-1.906c-0.203-1.3-0.621-2.462-1.258-3.488c-0.635-1.025-1.43-1.899-2.383-2.622
		c-0.953-0.722-2.016-1.271-3.186-1.647c-1.17-0.375-2.406-0.563-3.705-0.563c-2.021,0-3.83,0.39-5.418,1.17
		c-1.59,0.78-2.932,1.828-4.029,3.142c-1.1,1.315-1.938,2.853-2.514,4.615c-0.578,1.763-0.867,3.64-0.867,5.634
		c0,1.994,0.289,3.872,0.867,5.635c0.576,1.762,1.414,3.301,2.514,4.614c1.098,1.315,2.439,2.362,4.029,3.142
		c1.588,0.78,3.396,1.17,5.418,1.17c1.502,0,2.91-0.31,4.227-0.932c1.312-0.621,2.461-1.443,3.443-2.47
		c0.982-1.024,1.77-2.21,2.361-3.554s0.932-2.737,1.02-4.182h1.906c-0.174,1.85-0.629,3.553-1.365,5.114s-1.676,2.911-2.816,4.053
		c-1.143,1.141-2.463,2.029-3.965,2.664s-3.105,0.954-4.811,0.954c-2.312,0-4.385-0.419-6.219-1.257
		c-1.836-0.837-3.381-1.986-4.639-3.445c-1.258-1.457-2.219-3.178-2.883-5.156C343.635,33.323,343.303,31.207,343.303,28.953z"/>
	<path fill="#2075BC" d="M390.322,42.994v1.431h-17.682v-1.561l14.951-19.285h-13.781v-1.43h15.816v1.561l-14.992,19.285
		L390.322,42.994L390.322,42.994z"/>
</g>
</svg>
