<?xml version="1.0" encoding="utf-8"?>
<!-- Generator: Adobe Illustrator 15.0.0, SVG Export Plug-In . SVG Version: 6.00 Build 0)  -->
<!DOCTYPE svg PUBLIC "-//W3C//DTD SVG 1.1//EN" "http://www.w3.org/Graphics/SVG/1.1/DTD/svg11.dtd">
<svg version="1.1" id="Layer_1" xmlns="http://www.w3.org/2000/svg" xmlns:xlink="http://www.w3.org/1999/xlink" x="0px" y="0px"
	 width="266.07px" height="70.595px" viewBox="0 0 266.07 70.595" enable-background="new 0 0 266.07 70.595" xml:space="preserve">
<g>
	<path d="M25.27,37.471v1.057H0V0.782h25.059V1.84H1.058v16.494h22.573v1.058H1.058v18.08H25.27z"/>
	<path d="M51.49,38.528H28.389V0.782h1.057v36.689H51.49V38.528z"/>
	<path d="M54.873,0.782v37.746h-1.057V0.782H54.873z"/>
	<path d="M56.882,0.782h28.177V1.84H71.473v36.688h-1.058V1.84H56.882V0.782z"/>
	<path d="M112.284,37.471v1.057h-25.27V0.782h25.059V1.84H88.072v16.494h22.573v1.058H88.072v18.08H112.284z"/>
</g>
<g>
	<path d="M115.983,38.745V0.65h5.201v33.414h17.213v4.681H115.983z"/>
	<path d="M143.857,38.745V0.65h5.201v38.094H143.857z"/>
	<path d="M171.03,39.264h-2.625L154.207,0.65h5.773l9.804,28.057l9.438-28.057h5.591L171.03,39.264z"/>
	<path d="M189.961,38.745V0.65h5.201v38.094H189.961z"/>
	<path d="M228.498,39.264l-19.687-27.849v27.329h-4.938V0.65h2.081l19.164,26.341V0.65h4.938v38.614H228.498z"/>
	<path d="M264.249,3.303l-2.157,4.291c-2.618-1.941-5.184-2.912-7.697-2.912c-3.985,0-7.132,1.404-9.438,4.212
		c-2.308,2.809-3.46,6.527-3.46,11.155c0,4.403,1.133,7.948,3.395,10.635c2.261,2.687,5.344,4.03,9.244,4.03
		c2.772,0,5.018-0.832,6.733-2.497v-8.918h-5.278v-4.42h10.479v16.59c-1.388,1.179-3.318,2.128-5.798,2.847
		c-2.479,0.719-4.889,1.078-7.229,1.078c-5.252,0-9.398-1.779-12.441-5.342c-3.042-3.562-4.563-8.299-4.563-14.21
		c0-5.894,1.669-10.674,5.005-14.341C244.379,1.833,248.882,0,254.553,0C258.521,0,261.754,1.102,264.249,3.303z"/>
</g>
<g>
	<polygon points="171.303,59.112 174.675,59.112 173.019,54.72 	"/>
	<path d="M124.742,57.415c-0.168-0.205-0.372-0.368-0.612-0.492c-0.239-0.124-0.512-0.186-0.815-0.186
		c-0.312,0-0.588,0.062-0.828,0.186s-0.444,0.287-0.612,0.492c-0.168,0.203-0.302,0.439-0.401,0.707
		c-0.101,0.269-0.166,0.543-0.198,0.822h4.008c-0.008-0.287-0.058-0.563-0.149-0.828C125.04,57.852,124.91,57.618,124.742,57.415z"
		/>
	<path d="M108.71,59.28c-0.136,0.041-0.256,0.068-0.36,0.084c-0.319,0.057-0.649,0.106-0.989,0.15
		c-0.341,0.044-0.65,0.109-0.931,0.198c-0.279,0.088-0.51,0.214-0.689,0.378s-0.271,0.398-0.271,0.701
		c0,0.193,0.038,0.363,0.114,0.511s0.178,0.276,0.306,0.384s0.276,0.19,0.444,0.246c0.168,0.057,0.34,0.084,0.516,0.084
		c0.288,0,0.564-0.044,0.828-0.132c0.265-0.088,0.494-0.216,0.69-0.384s0.352-0.373,0.468-0.612c0.116-0.24,0.174-0.512,0.174-0.815
		v-0.984h-0.023C108.938,59.176,108.846,59.241,108.71,59.28z"/>
	<path d="M84.411,57.415c-0.168-0.205-0.372-0.368-0.612-0.492c-0.239-0.124-0.512-0.186-0.815-0.186
		c-0.312,0-0.588,0.062-0.828,0.186s-0.444,0.287-0.612,0.492c-0.168,0.203-0.302,0.439-0.401,0.707
		c-0.101,0.269-0.166,0.543-0.198,0.822h4.008c-0.008-0.287-0.058-0.563-0.149-0.828C84.709,57.852,84.579,57.618,84.411,57.415z"/>
	<path d="M12.31,57.577c-0.164-0.248-0.374-0.451-0.63-0.606c-0.257-0.156-0.564-0.233-0.924-0.233
		c-0.416,0-0.765,0.071-1.045,0.215c-0.279,0.145-0.504,0.336-0.672,0.576s-0.286,0.521-0.354,0.84
		c-0.068,0.32-0.103,0.656-0.103,1.008c0,0.32,0.038,0.639,0.114,0.955s0.2,0.598,0.372,0.846s0.396,0.449,0.672,0.605
		c0.276,0.156,0.614,0.234,1.015,0.234c0.359,0,0.667-0.078,0.924-0.234c0.256-0.156,0.466-0.357,0.63-0.605
		s0.284-0.529,0.359-0.846c0.076-0.316,0.114-0.635,0.114-0.955c0-0.319-0.038-0.637-0.114-0.953
		C12.594,58.106,12.474,57.825,12.31,57.577z"/>
	<path d="M220.31,57.415c-0.168-0.205-0.372-0.368-0.612-0.492c-0.239-0.124-0.512-0.186-0.815-0.186
		c-0.312,0-0.588,0.062-0.828,0.186s-0.444,0.287-0.612,0.492c-0.168,0.203-0.302,0.439-0.401,0.707
		c-0.101,0.269-0.166,0.543-0.198,0.822h4.008c-0.008-0.287-0.058-0.563-0.149-0.828C220.607,57.852,220.478,57.618,220.31,57.415z"
		/>
	<path d="M28.191,57.415c-0.168-0.205-0.372-0.368-0.612-0.492c-0.239-0.124-0.512-0.186-0.815-0.186
		c-0.312,0-0.588,0.062-0.828,0.186s-0.444,0.287-0.612,0.492c-0.168,0.203-0.302,0.439-0.401,0.707
		c-0.101,0.269-0.166,0.543-0.198,0.822h4.008c-0.008-0.287-0.058-0.563-0.149-0.828C28.489,57.852,28.359,57.618,28.191,57.415z"/>
	<path d="M149.648,57.577c-0.164-0.248-0.374-0.451-0.63-0.606c-0.257-0.156-0.564-0.233-0.924-0.233
		c-0.4,0-0.738,0.077-1.015,0.233c-0.275,0.155-0.5,0.358-0.672,0.606s-0.296,0.529-0.372,0.846s-0.114,0.634-0.114,0.953
		c0,0.32,0.038,0.639,0.114,0.955s0.2,0.598,0.372,0.846s0.396,0.449,0.672,0.605c0.276,0.156,0.614,0.234,1.015,0.234
		c0.359,0,0.667-0.078,0.924-0.234c0.256-0.156,0.466-0.357,0.63-0.605s0.284-0.529,0.359-0.846
		c0.076-0.316,0.114-0.635,0.114-0.955c0-0.319-0.038-0.637-0.114-0.953C149.933,58.106,149.812,57.825,149.648,57.577z"/>
	<path d="M0,44.622v25.974h266.069V44.622H0z M13.371,60.63c-0.111,0.396-0.284,0.743-0.516,1.044
		c-0.232,0.3-0.522,0.536-0.87,0.708s-0.758,0.258-1.229,0.258c-0.225,0-0.448-0.028-0.673-0.084
		c-0.224-0.056-0.432-0.14-0.624-0.252c-0.191-0.112-0.361-0.252-0.51-0.42c-0.147-0.168-0.262-0.364-0.342-0.588H8.583v3.456H7.827
		V56.28h0.696v1.176h0.024c0.176-0.432,0.462-0.766,0.857-1.002c0.396-0.235,0.846-0.354,1.351-0.354
		c0.472,0,0.882,0.088,1.229,0.264s0.638,0.414,0.87,0.715c0.231,0.299,0.404,0.647,0.516,1.043
		c0.112,0.396,0.168,0.814,0.168,1.254C13.539,59.817,13.483,60.235,13.371,60.63z M20.775,56.952
		c-0.345-0.016-0.656,0.03-0.937,0.139c-0.28,0.107-0.521,0.262-0.726,0.462s-0.362,0.438-0.475,0.714
		c-0.111,0.275-0.168,0.578-0.168,0.906v3.3h-0.756V56.28h0.696v1.452h0.024c0.191-0.504,0.489-0.892,0.894-1.163
		c0.404-0.272,0.886-0.396,1.446-0.373V56.952z M24.838,60.426c0.075,0.292,0.197,0.555,0.365,0.786s0.38,0.424,0.637,0.575
		c0.256,0.152,0.563,0.229,0.924,0.229c0.552,0,0.984-0.145,1.296-0.432c0.312-0.288,0.528-0.672,0.648-1.152h0.756
		c-0.16,0.704-0.454,1.248-0.882,1.632c-0.429,0.384-1.034,0.576-1.818,0.576c-0.488,0-0.91-0.086-1.266-0.258
		c-0.356-0.172-0.646-0.408-0.87-0.708c-0.225-0.301-0.391-0.648-0.498-1.044c-0.108-0.396-0.162-0.813-0.162-1.255
		c0-0.407,0.054-0.807,0.162-1.199c0.107-0.393,0.273-0.742,0.498-1.051c0.224-0.307,0.514-0.555,0.87-0.743
		c0.355-0.188,0.777-0.282,1.266-0.282c0.496,0,0.92,0.1,1.271,0.301c0.353,0.199,0.639,0.461,0.858,0.785s0.378,0.696,0.474,1.116
		c0.097,0.42,0.137,0.846,0.12,1.278h-4.764C24.724,59.852,24.762,60.134,24.838,60.426z M42.063,62.472h-0.757v-4.164
		c0-0.512-0.107-0.901-0.323-1.17s-0.597-0.401-1.141-0.401c-0.328,0-0.6,0.062-0.815,0.186s-0.389,0.29-0.517,0.498
		s-0.218,0.445-0.27,0.714s-0.078,0.546-0.078,0.834v3.504h-0.756v-4.2c0-0.207-0.022-0.406-0.066-0.594s-0.116-0.352-0.216-0.492
		c-0.1-0.14-0.234-0.25-0.402-0.33s-0.371-0.119-0.611-0.119c-0.32,0-0.599,0.058-0.834,0.174c-0.236,0.115-0.429,0.275-0.576,0.479
		c-0.148,0.204-0.258,0.444-0.33,0.72c-0.072,0.276-0.108,0.578-0.108,0.906v3.456h-0.756V56.28h0.696v1.045h0.036
		c0.2-0.385,0.462-0.685,0.786-0.9c0.323-0.217,0.737-0.324,1.242-0.324c0.407,0,0.777,0.1,1.109,0.301
		c0.332,0.199,0.554,0.504,0.666,0.911c0.184-0.407,0.456-0.712,0.816-0.911c0.359-0.201,0.744-0.301,1.151-0.301
		c1.368,0,2.053,0.725,2.053,2.172V62.472z M47.271,62.472h-0.756V56.28h0.756V62.472z M47.271,55.116h-0.756v-1.211h0.756V55.116z
		 M56.739,62.472h-0.696v-1.116h-0.024c-0.199,0.416-0.49,0.734-0.869,0.954c-0.381,0.22-0.803,0.33-1.267,0.33
		c-0.392,0-0.726-0.054-1.002-0.162s-0.5-0.262-0.672-0.462c-0.172-0.199-0.298-0.443-0.378-0.732
		c-0.08-0.287-0.12-0.615-0.12-0.983V56.28h0.756v4.032c0.016,0.56,0.146,0.984,0.39,1.272c0.244,0.287,0.666,0.432,1.267,0.432
		c0.328,0,0.607-0.07,0.84-0.21s0.424-0.325,0.576-0.558c0.151-0.232,0.264-0.498,0.336-0.799c0.072-0.299,0.108-0.605,0.108-0.918
		V56.28h0.756V62.472z M69.724,62.472h-0.757v-4.164c0-0.512-0.107-0.901-0.323-1.17s-0.597-0.401-1.141-0.401
		c-0.328,0-0.6,0.062-0.815,0.186s-0.389,0.29-0.517,0.498s-0.218,0.445-0.27,0.714s-0.078,0.546-0.078,0.834v3.504h-0.756v-4.2
		c0-0.207-0.022-0.406-0.066-0.594s-0.116-0.352-0.216-0.492c-0.1-0.14-0.234-0.25-0.402-0.33s-0.371-0.119-0.611-0.119
		c-0.32,0-0.599,0.058-0.834,0.174c-0.236,0.115-0.429,0.275-0.576,0.479c-0.148,0.204-0.258,0.444-0.33,0.72
		c-0.072,0.276-0.108,0.578-0.108,0.906v3.456h-0.756V56.28h0.696v1.045h0.036c0.2-0.385,0.462-0.685,0.786-0.9
		c0.323-0.217,0.737-0.324,1.242-0.324c0.407,0,0.777,0.1,1.109,0.301c0.332,0.199,0.554,0.504,0.666,0.911
		c0.184-0.407,0.456-0.712,0.816-0.911c0.359-0.201,0.744-0.301,1.151-0.301c1.368,0,2.053,0.725,2.053,2.172V62.472z
		 M81.058,60.426c0.075,0.292,0.197,0.555,0.365,0.786s0.38,0.424,0.637,0.575c0.256,0.152,0.563,0.229,0.924,0.229
		c0.552,0,0.984-0.145,1.296-0.432c0.312-0.288,0.528-0.672,0.648-1.152h0.756c-0.16,0.704-0.454,1.248-0.882,1.632
		c-0.429,0.384-1.034,0.576-1.818,0.576c-0.488,0-0.91-0.086-1.266-0.258c-0.356-0.172-0.646-0.408-0.87-0.708
		c-0.225-0.301-0.391-0.648-0.498-1.044c-0.108-0.396-0.162-0.813-0.162-1.255c0-0.407,0.054-0.807,0.162-1.199
		c0.107-0.393,0.273-0.742,0.498-1.051c0.224-0.307,0.514-0.555,0.87-0.743c0.355-0.188,0.777-0.282,1.266-0.282
		c0.496,0,0.92,0.1,1.271,0.301c0.353,0.199,0.639,0.461,0.858,0.785s0.378,0.696,0.474,1.116c0.097,0.42,0.137,0.846,0.12,1.278
		h-4.764C80.943,59.852,80.981,60.134,81.058,60.426z M94.179,61.651c-0.152,0.235-0.346,0.428-0.582,0.575
		c-0.236,0.148-0.502,0.254-0.798,0.317c-0.296,0.064-0.588,0.097-0.876,0.097c-0.729,0-1.318-0.172-1.77-0.517
		c-0.452-0.344-0.711-0.895-0.774-1.655h0.756c0.032,0.513,0.218,0.897,0.558,1.157c0.341,0.261,0.763,0.391,1.267,0.391
		c0.184,0,0.374-0.02,0.57-0.061c0.195-0.039,0.378-0.107,0.546-0.203s0.306-0.219,0.414-0.366c0.107-0.147,0.161-0.33,0.161-0.546
		c0-0.184-0.038-0.338-0.113-0.463c-0.076-0.123-0.179-0.227-0.307-0.311c-0.128-0.085-0.273-0.154-0.438-0.211
		c-0.164-0.056-0.33-0.104-0.498-0.144l-0.972-0.216c-0.248-0.064-0.477-0.139-0.685-0.223s-0.39-0.188-0.546-0.312
		s-0.278-0.276-0.366-0.456s-0.132-0.402-0.132-0.666c0-0.312,0.07-0.58,0.21-0.805c0.14-0.223,0.322-0.403,0.546-0.539
		c0.225-0.137,0.475-0.236,0.75-0.301c0.276-0.063,0.55-0.096,0.822-0.096c0.312,0,0.602,0.04,0.87,0.12
		c0.268,0.08,0.504,0.204,0.708,0.372s0.366,0.376,0.486,0.624c0.119,0.248,0.188,0.54,0.203,0.876h-0.756
		c-0.008-0.232-0.056-0.434-0.144-0.605s-0.206-0.314-0.354-0.427c-0.147-0.112-0.317-0.194-0.51-0.246s-0.396-0.077-0.612-0.077
		c-0.168,0-0.338,0.018-0.51,0.053c-0.172,0.037-0.33,0.097-0.474,0.181c-0.145,0.084-0.261,0.194-0.349,0.33
		s-0.132,0.304-0.132,0.504c0,0.168,0.042,0.31,0.126,0.426s0.19,0.214,0.318,0.294s0.268,0.146,0.42,0.198s0.292,0.095,0.42,0.126
		l1.008,0.229c0.216,0.031,0.431,0.09,0.643,0.174s0.399,0.193,0.563,0.33c0.164,0.136,0.298,0.304,0.402,0.504
		c0.104,0.199,0.156,0.436,0.156,0.707C94.407,61.127,94.331,61.415,94.179,61.651z M100.958,56.917h-1.26v4.176
		c0,0.248,0.034,0.441,0.103,0.582c0.067,0.141,0.237,0.218,0.51,0.234c0.216,0,0.432-0.013,0.647-0.037v0.637
		c-0.111,0-0.224,0.004-0.336,0.012s-0.224,0.012-0.336,0.012c-0.504,0-0.855-0.098-1.056-0.293c-0.2-0.197-0.296-0.559-0.288-1.086
		v-4.236h-1.08V56.28h1.08V54.42h0.756v1.859h1.26V56.917z M110.45,62.424c-0.088,0.016-0.166,0.027-0.234,0.035
		c-0.067,0.009-0.154,0.013-0.258,0.013c-0.192,0-0.346-0.026-0.462-0.078s-0.206-0.126-0.27-0.222
		c-0.064-0.096-0.106-0.21-0.127-0.342c-0.02-0.133-0.029-0.278-0.029-0.438h-0.024c-0.136,0.2-0.274,0.378-0.414,0.534
		s-0.296,0.286-0.468,0.391c-0.172,0.104-0.368,0.184-0.588,0.239c-0.221,0.056-0.482,0.084-0.786,0.084
		c-0.288,0-0.558-0.034-0.81-0.103c-0.252-0.067-0.473-0.176-0.66-0.323c-0.188-0.147-0.336-0.337-0.444-0.563
		c-0.107-0.229-0.162-0.498-0.162-0.811c0-0.432,0.097-0.77,0.288-1.014c0.192-0.244,0.446-0.431,0.762-0.559
		c0.316-0.128,0.673-0.218,1.068-0.27c0.396-0.053,0.798-0.103,1.206-0.15c0.16-0.016,0.3-0.036,0.42-0.061
		c0.12-0.023,0.22-0.065,0.3-0.125c0.08-0.061,0.143-0.143,0.187-0.246s0.065-0.24,0.065-0.408c0-0.256-0.042-0.467-0.126-0.631
		c-0.084-0.163-0.2-0.293-0.348-0.389c-0.148-0.097-0.32-0.162-0.516-0.199c-0.196-0.035-0.406-0.053-0.631-0.053
		c-0.479,0-0.872,0.113-1.176,0.342c-0.304,0.228-0.464,0.594-0.479,1.098h-0.756c0.023-0.359,0.1-0.672,0.228-0.936
		c0.128-0.265,0.302-0.48,0.522-0.648c0.22-0.168,0.478-0.292,0.773-0.372s0.624-0.12,0.984-0.12c0.271,0,0.544,0.026,0.815,0.078
		c0.272,0.053,0.517,0.15,0.732,0.294s0.392,0.347,0.528,0.606c0.136,0.26,0.203,0.598,0.203,1.014v3.288
		c0,0.304,0.148,0.456,0.444,0.456c0.088,0,0.168-0.016,0.24-0.049V62.424z M116.738,56.917h-1.26v4.176
		c0,0.248,0.034,0.441,0.103,0.582c0.067,0.141,0.237,0.218,0.51,0.234c0.216,0,0.432-0.013,0.647-0.037v0.637
		c-0.111,0-0.224,0.004-0.336,0.012s-0.224,0.012-0.336,0.012c-0.504,0-0.855-0.098-1.056-0.293c-0.2-0.197-0.296-0.559-0.288-1.086
		v-4.236h-1.08V56.28h1.08V54.42h0.756v1.859h1.26V56.917z M121.389,60.426c0.075,0.292,0.197,0.555,0.365,0.786
		s0.38,0.424,0.637,0.575c0.256,0.152,0.563,0.229,0.924,0.229c0.552,0,0.984-0.145,1.296-0.432
		c0.312-0.288,0.528-0.672,0.648-1.152h0.756c-0.16,0.704-0.454,1.248-0.882,1.632c-0.429,0.384-1.034,0.576-1.818,0.576
		c-0.488,0-0.91-0.086-1.266-0.258c-0.356-0.172-0.646-0.408-0.87-0.708c-0.225-0.301-0.391-0.648-0.498-1.044
		c-0.108-0.396-0.162-0.813-0.162-1.255c0-0.407,0.054-0.807,0.162-1.199c0.107-0.393,0.273-0.742,0.498-1.051
		c0.224-0.307,0.514-0.555,0.87-0.743c0.355-0.188,0.777-0.282,1.266-0.282c0.496,0,0.92,0.1,1.271,0.301
		c0.353,0.199,0.639,0.461,0.858,0.785s0.378,0.696,0.474,1.116c0.097,0.42,0.137,0.846,0.12,1.278h-4.764
		C121.274,59.852,121.312,60.134,121.389,60.426z M134.51,61.651c-0.152,0.235-0.346,0.428-0.582,0.575
		c-0.236,0.148-0.502,0.254-0.798,0.317c-0.296,0.064-0.588,0.097-0.876,0.097c-0.729,0-1.318-0.172-1.77-0.517
		c-0.452-0.344-0.711-0.895-0.774-1.655h0.756c0.032,0.513,0.218,0.897,0.558,1.157c0.341,0.261,0.763,0.391,1.267,0.391
		c0.184,0,0.374-0.02,0.57-0.061c0.195-0.039,0.378-0.107,0.546-0.203s0.306-0.219,0.414-0.366c0.107-0.147,0.161-0.33,0.161-0.546
		c0-0.184-0.038-0.338-0.113-0.463c-0.076-0.123-0.179-0.227-0.307-0.311c-0.128-0.085-0.273-0.154-0.438-0.211
		c-0.164-0.056-0.33-0.104-0.498-0.144l-0.972-0.216c-0.248-0.064-0.477-0.139-0.685-0.223s-0.39-0.188-0.546-0.312
		s-0.278-0.276-0.366-0.456s-0.132-0.402-0.132-0.666c0-0.312,0.07-0.58,0.21-0.805c0.14-0.223,0.322-0.403,0.546-0.539
		c0.225-0.137,0.475-0.236,0.75-0.301c0.276-0.063,0.55-0.096,0.822-0.096c0.312,0,0.602,0.04,0.87,0.12
		c0.268,0.08,0.504,0.204,0.708,0.372s0.366,0.376,0.486,0.624c0.119,0.248,0.188,0.54,0.203,0.876h-0.756
		c-0.008-0.232-0.056-0.434-0.144-0.605s-0.206-0.314-0.354-0.427c-0.147-0.112-0.317-0.194-0.51-0.246s-0.396-0.077-0.612-0.077
		c-0.168,0-0.338,0.018-0.51,0.053c-0.172,0.037-0.33,0.097-0.474,0.181c-0.145,0.084-0.261,0.194-0.349,0.33
		s-0.132,0.304-0.132,0.504c0,0.168,0.042,0.31,0.126,0.426s0.19,0.214,0.318,0.294s0.268,0.146,0.42,0.198s0.292,0.095,0.42,0.126
		l1.008,0.229c0.216,0.031,0.431,0.09,0.643,0.174s0.399,0.193,0.563,0.33c0.164,0.136,0.298,0.304,0.402,0.504
		c0.104,0.199,0.156,0.436,0.156,0.707C134.738,61.127,134.662,61.415,134.51,61.651z M150.71,60.63
		c-0.111,0.396-0.284,0.743-0.516,1.044c-0.232,0.3-0.522,0.536-0.87,0.708s-0.758,0.258-1.229,0.258
		c-0.505,0-0.954-0.116-1.351-0.349c-0.396-0.231-0.682-0.563-0.857-0.995h-0.024v1.176h-0.696v-8.567h0.756v3.551h0.024
		c0.08-0.223,0.194-0.42,0.342-0.588c0.148-0.168,0.318-0.31,0.51-0.426c0.192-0.115,0.4-0.201,0.624-0.258
		c0.225-0.056,0.448-0.084,0.673-0.084c0.472,0,0.882,0.088,1.229,0.264s0.638,0.414,0.87,0.715
		c0.231,0.299,0.404,0.647,0.516,1.043c0.112,0.396,0.168,0.814,0.168,1.254C150.878,59.817,150.822,60.235,150.71,60.63z
		 M157.178,63.409c-0.112,0.264-0.216,0.481-0.312,0.653c-0.097,0.172-0.202,0.308-0.318,0.408s-0.252,0.172-0.408,0.216
		c-0.155,0.044-0.354,0.066-0.594,0.066c-0.152-0.008-0.27-0.014-0.354-0.018c-0.084-0.005-0.158-0.019-0.223-0.043v-0.636
		c0.088,0.017,0.174,0.03,0.258,0.042s0.17,0.018,0.259,0.018c0.168,0,0.306-0.023,0.414-0.072c0.107-0.047,0.201-0.113,0.281-0.197
		s0.148-0.186,0.204-0.307c0.056-0.119,0.116-0.252,0.181-0.396l0.264-0.696l-2.472-6.168h0.804l2.04,5.28l1.908-5.28h0.756
		L157.178,63.409z M175.994,62.472l-1.044-2.664h-3.899l-1.032,2.664h-0.864l3.444-8.567h0.912l3.359,8.567H175.994z
		 M184.935,62.472l-2.448-3.372l-1.225,1.02v2.353h-0.756v-8.567h0.756v5.375l3.433-3h1.008l-2.64,2.293l2.819,3.899H184.935z
		 M191.966,56.917h-1.26v4.176c0,0.248,0.034,0.441,0.103,0.582c0.067,0.141,0.237,0.218,0.51,0.234
		c0.216,0,0.432-0.013,0.647-0.037v0.637c-0.111,0-0.224,0.004-0.336,0.012s-0.224,0.012-0.336,0.012
		c-0.504,0-0.855-0.098-1.056-0.293c-0.2-0.197-0.296-0.559-0.288-1.086v-4.236h-1.08V56.28h1.08V54.42h0.756v1.859h1.26V56.917z
		 M196.826,62.472h-0.756V56.28h0.756V62.472z M196.826,55.116h-0.756v-1.211h0.756V55.116z M203.773,62.472h-0.804l-2.388-6.192
		h0.84l1.943,5.437h0.024l1.92-5.437h0.78L203.773,62.472z M212.894,56.952c-0.345-0.016-0.656,0.03-0.937,0.139
		c-0.28,0.107-0.521,0.262-0.726,0.462s-0.362,0.438-0.475,0.714c-0.111,0.275-0.168,0.578-0.168,0.906v3.3h-0.756V56.28h0.696
		v1.452h0.024c0.191-0.504,0.489-0.892,0.894-1.163c0.404-0.272,0.886-0.396,1.446-0.373V56.952z M216.956,60.426
		c0.075,0.292,0.197,0.555,0.365,0.786s0.38,0.424,0.637,0.575c0.256,0.152,0.563,0.229,0.924,0.229
		c0.552,0,0.984-0.145,1.296-0.432c0.312-0.288,0.528-0.672,0.648-1.152h0.756c-0.16,0.704-0.454,1.248-0.882,1.632
		c-0.429,0.384-1.034,0.576-1.818,0.576c-0.488,0-0.91-0.086-1.266-0.258c-0.356-0.172-0.646-0.408-0.87-0.708
		c-0.225-0.301-0.391-0.648-0.498-1.044c-0.108-0.396-0.162-0.813-0.162-1.255c0-0.407,0.054-0.807,0.162-1.199
		c0.107-0.393,0.273-0.742,0.498-1.051c0.224-0.307,0.514-0.555,0.87-0.743c0.355-0.188,0.777-0.282,1.266-0.282
		c0.496,0,0.92,0.1,1.271,0.301c0.353,0.199,0.639,0.461,0.858,0.785s0.378,0.696,0.474,1.116c0.097,0.42,0.137,0.846,0.12,1.278
		h-4.764C216.842,59.852,216.88,60.134,216.956,60.426z M231.025,62.424c-0.088,0.016-0.166,0.027-0.234,0.035
		c-0.067,0.009-0.154,0.013-0.258,0.013c-0.192,0-0.346-0.026-0.462-0.078s-0.206-0.126-0.27-0.222
		c-0.064-0.096-0.106-0.21-0.127-0.342c-0.02-0.133-0.029-0.278-0.029-0.438h-0.024c-0.136,0.2-0.274,0.378-0.414,0.534
		s-0.296,0.286-0.468,0.391c-0.172,0.104-0.368,0.184-0.588,0.239c-0.221,0.056-0.482,0.084-0.786,0.084
		c-0.288,0-0.558-0.034-0.81-0.103c-0.252-0.067-0.473-0.176-0.66-0.323c-0.188-0.147-0.336-0.337-0.444-0.563
		c-0.107-0.229-0.162-0.498-0.162-0.811c0-0.432,0.097-0.77,0.288-1.014c0.192-0.244,0.446-0.431,0.762-0.559
		c0.316-0.128,0.673-0.218,1.068-0.27c0.396-0.053,0.798-0.103,1.206-0.15c0.16-0.016,0.3-0.036,0.42-0.061
		c0.12-0.023,0.22-0.065,0.3-0.125c0.08-0.061,0.143-0.143,0.187-0.246s0.065-0.24,0.065-0.408c0-0.256-0.042-0.467-0.126-0.631
		c-0.084-0.163-0.2-0.293-0.348-0.389c-0.148-0.097-0.32-0.162-0.516-0.199c-0.196-0.035-0.406-0.053-0.631-0.053
		c-0.479,0-0.872,0.113-1.176,0.342c-0.304,0.228-0.464,0.594-0.479,1.098h-0.756c0.023-0.359,0.1-0.672,0.228-0.936
		c0.128-0.265,0.302-0.48,0.522-0.648c0.22-0.168,0.478-0.292,0.773-0.372s0.624-0.12,0.984-0.12c0.271,0,0.544,0.026,0.815,0.078
		c0.272,0.053,0.517,0.15,0.732,0.294s0.392,0.347,0.528,0.606c0.136,0.26,0.203,0.598,0.203,1.014v3.288
		c0,0.304,0.148,0.456,0.444,0.456c0.088,0,0.168-0.016,0.24-0.049V62.424z M235.622,62.472h-0.756v-8.567h0.756V62.472z
		 M240.842,62.472h-0.756V56.28h0.756V62.472z M240.842,55.116h-0.756v-1.211h0.756V55.116z M247.753,56.917h-1.26v4.176
		c0,0.248,0.034,0.441,0.103,0.582c0.067,0.141,0.237,0.218,0.51,0.234c0.216,0,0.432-0.013,0.647-0.037v0.637
		c-0.111,0-0.224,0.004-0.336,0.012s-0.224,0.012-0.336,0.012c-0.504,0-0.855-0.098-1.056-0.293c-0.2-0.197-0.296-0.559-0.288-1.086
		v-4.236h-1.08V56.28h1.08V54.42h0.756v1.859h1.26V56.917z M253.969,63.409c-0.112,0.264-0.216,0.481-0.312,0.653
		c-0.097,0.172-0.202,0.308-0.318,0.408s-0.252,0.172-0.408,0.216c-0.155,0.044-0.354,0.066-0.594,0.066
		c-0.152-0.008-0.27-0.014-0.354-0.018c-0.084-0.005-0.158-0.019-0.223-0.043v-0.636c0.088,0.017,0.174,0.03,0.258,0.042
		s0.17,0.018,0.259,0.018c0.168,0,0.306-0.023,0.414-0.072c0.107-0.047,0.201-0.113,0.281-0.197s0.148-0.186,0.204-0.307
		c0.056-0.119,0.116-0.252,0.181-0.396l0.264-0.696l-2.472-6.168h0.804l2.04,5.28l1.908-5.28h0.756L253.969,63.409z"/>
	<path d="M229.285,59.28c-0.136,0.041-0.256,0.068-0.36,0.084c-0.319,0.057-0.649,0.106-0.989,0.15
		c-0.341,0.044-0.65,0.109-0.931,0.198c-0.279,0.088-0.51,0.214-0.689,0.378s-0.271,0.398-0.271,0.701
		c0,0.193,0.038,0.363,0.114,0.511s0.178,0.276,0.306,0.384s0.276,0.19,0.444,0.246c0.168,0.057,0.34,0.084,0.516,0.084
		c0.288,0,0.564-0.044,0.828-0.132c0.265-0.088,0.494-0.216,0.69-0.384s0.352-0.373,0.468-0.612c0.116-0.24,0.174-0.512,0.174-0.815
		v-0.984h-0.023C229.514,59.176,229.421,59.241,229.285,59.28z"/>
</g>
</svg>
