<?xml version="1.0" encoding="utf-8"?>
<!-- Generator: Adobe Illustrator 15.0.0, SVG Export Plug-In . SVG Version: 6.00 Build 0)  -->
<!DOCTYPE svg PUBLIC "-//W3C//DTD SVG 1.1//EN" "http://www.w3.org/Graphics/SVG/1.1/DTD/svg11.dtd">
<svg version="1.1" id="Layer_1" xmlns="http://www.w3.org/2000/svg" xmlns:xlink="http://www.w3.org/1999/xlink" x="0px" y="0px"
	 width="75.25px" height="37.63px" viewBox="-1.122 0 75.25 37.63" enable-background="new -1.122 0 75.25 37.63"
	 xml:space="preserve">
<rect x="-923.881" y="74.625" fill="#FFFFFF" width="1920" height="61"/>
<polygon fill="#FFFFFF" points="-923.881,101.625 996.119,101.625 996.119,37.625 74.244,37.625 36.619,0 -1.006,37.625 
	-923.881,37.625 "/>
</svg>
