<?xml version="1.0" encoding="utf-8"?>
<!-- Generator: Adobe Illustrator 15.0.0, SVG Export Plug-In . SVG Version: 6.00 Build 0)  -->
<!DOCTYPE svg PUBLIC "-//W3C//DTD SVG 1.1//EN" "http://www.w3.org/Graphics/SVG/1.1/DTD/svg11.dtd">
<svg version="1.1" id="Layer_1" xmlns="http://www.w3.org/2000/svg" xmlns:xlink="http://www.w3.org/1999/xlink" x="0px" y="0px"
	 width="600px" height="600px" viewBox="0 0 600 600" enable-background="new 0 0 600 600" xml:space="preserve">
<rect y="561" fill="#72272D" width="16" height="39"/>
<rect x="569" fill="#72272D" width="31" height="18"/>
<polygon fill="#C1272D" points="600,0 0,600 0,368.018 368.51,0 "/>
<g>
	<path fill="#FFFFFF" d="M93.9,346.245c2.25-3.249,5.687-7.437,10.875-12.625c5.625-5.624,10.937-8.562,15.874-8.999
		c4.562-0.437,9.499,1.249,13.437,5.187c4,4.001,6.062,8.563,5.938,13.188c0,6.125-3.375,12.375-8.812,17.812
		c-1.438,1.438-2.812,2.688-4,3.5l15.874,15.875l-7.624,7.624L93.9,346.245z M121.148,358.245c1.188-0.688,2.5-1.874,4.062-3.437
		c5.75-5.75,6.438-12.063,1.5-17c-4.688-4.688-10.437-3.938-15.749,1.375c-2.125,2.125-3.437,3.812-4.063,4.812L121.148,358.245z"/>
	<path fill="#FFFFFF" d="M126.958,313.186c2.375-3.375,6.313-8.062,10.75-12.499c6.062-6.062,11.187-9.188,16.373-9.625
		c4.25-0.375,8.501,1.25,12.062,4.813c5.438,5.437,5.438,12.812,2.938,18.186l0.188,0.188c4.125-1.875,8.875-0.75,14,2.25
		c6.562,3.938,12.562,7.688,15.062,8.438l-7.938,7.937c-1.875-0.625-6.312-3.062-12.75-7.125
		c-6.688-4.312-10.437-4.062-14.937,0.188l-3.875,3.875l17.312,17.313l-7.625,7.624L126.958,313.186z M153.207,324.186l4.562-4.562
		c5.188-5.187,5.687-11.187,1.5-15.374c-4.625-4.625-9.999-3.5-15,1.5c-2.437,2.437-3.812,4.187-4.375,5.124L153.207,324.186z"/>
	<path fill="#FFFFFF" d="M218.076,262.191c14.125,14.125,13.624,30.749,2,42.373c-11.874,11.874-28.436,10.312-40.811-2.062
		c-12.936-12.938-13.937-30.187-2.062-42.061C189.516,248.129,206.077,250.191,218.076,262.191z M187.265,294.252
		c8.562,8.562,19.687,11.061,27.061,3.687c7.437-7.437,4.75-18.499-4.062-27.312c-7.937-7.938-19.374-11.5-27.061-3.812
		C175.578,274.441,178.578,285.565,187.265,294.252z"/>
	<path fill="#FFFFFF" d="M202.762,237.382c2.812-3.937,6.813-8.562,11.375-13.125c7.875-7.874,14.937-11.687,22.061-12.312
		c7.375-0.75,14.875,1.75,22.062,8.938c7.5,7.5,10.562,15.687,10.187,23.311c-0.375,8-5.125,16.625-13.312,24.811
		c-4.5,4.5-8.125,7.625-10.937,9.812L202.762,237.382z M246.135,265.381c1.25-0.875,2.875-2.5,4.438-4.062
		c10.061-9.937,10.5-21.374-0.188-32.061c-9.25-9.375-19.936-9.312-29.561,0.313c-2.438,2.437-4,4.374-4.812,5.687L246.135,265.381z
		"/>
	<path fill="#FFFFFF" d="M257.756,161.763l-0.312,15.312l-6.188,6.188l-2-13L257.756,161.763z M280.693,218.698l8.312,15.562
		l-7.937,7.937l-28.623-55.623l9.812-9.812l55.81,28.436l-8.25,8.25l-15.75-8.125L280.693,218.698z M286.943,200.824l-13.687-7.063
		c-3.375-1.749-6.937-3.937-9.999-5.75l-0.125,0.125c1.812,3.062,4.125,6.625,5.875,9.875l7.125,13.624L286.943,200.824z"/>
	<path fill="#FFFFFF" d="M322.064,201.202l-42.125-42.124l8.75-8.75l28.936,7.187c7.5,1.875,14.812,4.312,21.312,6.938l0.125-0.125
		c-6.125-5.125-11.75-10.374-18.187-16.812l-14.688-14.687l7.125-7.125l42.124,42.124l-7.938,7.937l-29.499-7.499
		c-7.312-1.938-15.312-4.313-22.124-7l-0.125,0.25c5.75,5.125,11.375,10.625,18.311,17.562l15.062,15.062L322.064,201.202z"/>
	<path fill="#FFFFFF" d="M378.308,101.958c14.123,14.125,13.623,30.749,2,42.373c-11.875,11.875-28.436,10.312-40.809-2.062
		c-12.938-12.937-13.938-30.186-2.063-42.061C349.747,87.897,366.308,89.959,378.308,101.958z M347.498,134.02
		c8.562,8.562,19.686,11.062,27.06,3.687c7.438-7.438,4.749-18.499-4.062-27.312c-7.936-7.938-19.373-11.499-27.06-3.812
		C335.81,114.208,338.81,125.333,347.498,134.02z"/>
</g>
</svg>
